%YAML 1.1
%TAG !u! tag:unity3d.com,2011:
--- !u!1 &5507056901918697590
GameObject:
  m_ObjectHideFlags: 0
  m_CorrespondingSourceObject: {fileID: 0}
  m_PrefabInstance: {fileID: 0}
  m_PrefabAsset: {fileID: 0}
  serializedVersion: 6
  m_Component:
  - component: {fileID: 5507056901918697589}
  m_Layer: 0
  m_Name: tile 1
  m_TagString: Untagged
  m_Icon: {fileID: 0}
  m_NavMeshLayer: 0
  m_StaticEditorFlags: 0
  m_IsActive: 1
--- !u!4 &5507056901918697589
Transform:
  m_ObjectHideFlags: 0
  m_CorrespondingSourceObject: {fileID: 0}
  m_PrefabInstance: {fileID: 0}
  m_PrefabAsset: {fileID: 0}
  m_GameObject: {fileID: 5507056901918697590}
  m_LocalRotation: {x: 0, y: 0, z: 0, w: 1}
  m_LocalPosition: {x: 0, y: 0, z: 0}
  m_LocalScale: {x: 1, y: 1, z: 1}
  m_ConstrainProportionsScale: 0
  m_Children:
  - {fileID: 5469136236640370416}
  m_Father: {fileID: 0}
  m_RootOrder: 0
  m_LocalEulerAnglesHint: {x: 0, y: 0, z: 0}
--- !u!1001 &5507056902704929051
PrefabInstance:
  m_ObjectHideFlags: 0
  serializedVersion: 2
  m_Modification:
    m_TransformParent: {fileID: 5507056901918697589}
    m_Modifications:
    - target: {fileID: -8679921383154817045, guid: e07423cb21a55af4083a38604aa0e3b2, type: 3}
      propertyPath: m_RootOrder
      value: 0
      objectReference: {fileID: 0}
    - target: {fileID: -8679921383154817045, guid: e07423cb21a55af4083a38604aa0e3b2, type: 3}
      propertyPath: m_LocalPosition.x
      value: -0
      objectReference: {fileID: 0}
    - target: {fileID: -8679921383154817045, guid: e07423cb21a55af4083a38604aa0e3b2, type: 3}
      propertyPath: m_LocalPosition.y
      value: 0
      objectReference: {fileID: 0}
    - target: {fileID: -8679921383154817045, guid: e07423cb21a55af4083a38604aa0e3b2, type: 3}
      propertyPath: m_LocalPosition.z
      value: 0
      objectReference: {fileID: 0}
    - target: {fileID: -8679921383154817045, guid: e07423cb21a55af4083a38604aa0e3b2, type: 3}
      propertyPath: m_LocalRotation.w
      value: 0.7071067
      objectReference: {fileID: 0}
    - target: {fileID: -8679921383154817045, guid: e07423cb21a55af4083a38604aa0e3b2, type: 3}
      propertyPath: m_LocalRotation.x
      value: -0.7071068
      objectReference: {fileID: 0}
    - target: {fileID: -8679921383154817045, guid: e07423cb21a55af4083a38604aa0e3b2, type: 3}
      propertyPath: m_LocalRotation.y
      value: 0
      objectReference: {fileID: 0}
    - target: {fileID: -8679921383154817045, guid: e07423cb21a55af4083a38604aa0e3b2, type: 3}
      propertyPath: m_LocalRotation.z
      value: -0
      objectReference: {fileID: 0}
    - target: {fileID: -8679921383154817045, guid: e07423cb21a55af4083a38604aa0e3b2, type: 3}
      propertyPath: m_LocalEulerAnglesHint.x
      value: 0
      objectReference: {fileID: 0}
    - target: {fileID: -8679921383154817045, guid: e07423cb21a55af4083a38604aa0e3b2, type: 3}
      propertyPath: m_LocalEulerAnglesHint.y
      value: 0
      objectReference: {fileID: 0}
    - target: {fileID: -8679921383154817045, guid: e07423cb21a55af4083a38604aa0e3b2, type: 3}
      propertyPath: m_LocalEulerAnglesHint.z
      value: 0
      objectReference: {fileID: 0}
    - target: {fileID: 919132149155446097, guid: e07423cb21a55af4083a38604aa0e3b2, type: 3}
      propertyPath: m_Name
      value: Road
      objectReference: {fileID: 0}
    m_RemovedComponents: []
  m_SourcePrefab: {fileID: 100100000, guid: e07423cb21a55af4083a38604aa0e3b2, type: 3}
--- !u!1 &4660546952312267850 stripped
GameObject:
  m_CorrespondingSourceObject: {fileID: 919132149155446097, guid: e07423cb21a55af4083a38604aa0e3b2, type: 3}
  m_PrefabInstance: {fileID: 5507056902704929051}
  m_PrefabAsset: {fileID: 0}
--- !u!65 &5507056901465719138
BoxCollider:
  m_ObjectHideFlags: 0
  m_CorrespondingSourceObject: {fileID: 0}
  m_PrefabInstance: {fileID: 0}
  m_PrefabAsset: {fileID: 0}
  m_GameObject: {fileID: 4660546952312267850}
  m_Material: {fileID: 0}
  m_IsTrigger: 0
  m_Enabled: 1
  serializedVersion: 2
  m_Size: {x: 0.02, y: 0.019999996, z: 0.019999996}
  m_Center: {x: 0, y: 0, z: 0}
--- !u!4 &5469136236640370416 stripped
Transform:
  m_CorrespondingSourceObject: {fileID: -8679921383154817045, guid: e07423cb21a55af4083a38604aa0e3b2, type: 3}
  m_PrefabInstance: {fileID: 5507056902704929051}
  m_PrefabAsset: {fileID: 0}
